<?xml version="1.0" encoding="UTF-8" standalone="no"?>
<!-- Created with Inkscape (http://www.inkscape.org/) -->

<svg
   xmlns:dc="http://purl.org/dc/elements/1.1/"
   xmlns:cc="http://creativecommons.org/ns#"
   xmlns:rdf="http://www.w3.org/1999/02/22-rdf-syntax-ns#"
   xmlns:svg="http://www.w3.org/2000/svg"
   xmlns="http://www.w3.org/2000/svg"
   xmlns:xlink="http://www.w3.org/1999/xlink"
   xmlns:sodipodi="http://sodipodi.sourceforge.net/DTD/sodipodi-0.dtd"
   xmlns:inkscape="http://www.inkscape.org/namespaces/inkscape"
   width="744.09448"
   height="1052.3622"
   id="svg4152"
   version="1.1"
   inkscape:version="0.91 r13725"
   viewBox="0 0 744.09448 1052.3622"
   sodipodi:docname="all_drawings.svg">
  <defs
     id="defs4154">
    <linearGradient
       inkscape:collect="always"
       id="linearGradient4568">
      <stop
         style="stop-color:#d70000;stop-opacity:1"
         offset="0"
         id="stop4570" />
      <stop
         style="stop-color:#ffffff;stop-opacity:1"
         offset="1"
         id="stop4572" />
    </linearGradient>
    <linearGradient
       inkscape:collect="always"
       xlink:href="#linearGradient4568"
       id="linearGradient4574"
       x1="2517.7017"
       y1="-1263.6909"
       x2="2517.7014"
       y2="-1017.6177"
       gradientUnits="userSpaceOnUse" />
  </defs>
  <sodipodi:namedview
     id="base"
     pagecolor="#ffffff"
     bordercolor="#ffffff"
     borderopacity="0.0"
     inkscape:pageopacity="0.0"
     inkscape:pageshadow="0"
     inkscape:zoom="0.5"
     inkscape:cx="2524.1191"
     inkscape:cy="2226.3454"
     inkscape:document-units="px"
     inkscape:current-layer="layer1"
     showgrid="false"
     inkscape:window-width="1278"
     inkscape:window-height="1001"
     inkscape:window-x="1280"
     inkscape:window-y="21"
     inkscape:window-maximized="1" />
  <metadata
     id="metadata4157">
    <rdf:RDF>
      <cc:Work
         rdf:about="">
        <dc:format>image/svg+xml</dc:format>
        <dc:type
           rdf:resource="http://purl.org/dc/dcmitype/StillImage" />
        <dc:title></dc:title>
      </cc:Work>
    </rdf:RDF>
  </metadata>
  <g
     inkscape:label="Layer 1"
     inkscape:groupmode="layer"
     id="layer1">
    <g
       id="g6037"
       inkscape:export-xdpi="93.300003"
       inkscape:export-ydpi="93.300003"
       transform="matrix(3.6914445,0,0,3.6914445,-6998.5033,9.2253919)">
      <rect
         y="-220.145"
         x="2397.8926"
         height="216.71733"
         width="216.71733"
         id="rect4700"
         style="color:#000000;display:inline;overflow:visible;visibility:visible;opacity:1;fill:#ffffff;fill-opacity:1;fill-rule:evenodd;stroke:none;stroke-width:4;stroke-linecap:round;stroke-linejoin:round;stroke-miterlimit:4;stroke-dasharray:none;stroke-dashoffset:0;stroke-opacity:1;marker:none;enable-background:accumulate" />
      <rect
         ry="10.433517"
         y="-206.07993"
         x="2414.1462"
         height="54.179333"
         width="184.20973"
         id="rect4702"
         style="color:#000000;display:inline;overflow:visible;visibility:visible;opacity:1;fill:#f1c3c3;fill-opacity:1;fill-rule:evenodd;stroke:#000000;stroke-width:2;stroke-linecap:round;stroke-linejoin:round;stroke-miterlimit:4;stroke-dasharray:none;stroke-dashoffset:0;stroke-opacity:1;marker:none;enable-background:accumulate" />
      <rect
         style="color:#000000;display:inline;overflow:visible;visibility:visible;opacity:1;fill:#ec0000;fill-opacity:0.1956522;fill-rule:evenodd;stroke:#000000;stroke-width:2;stroke-linecap:round;stroke-linejoin:round;stroke-miterlimit:4;stroke-dasharray:none;stroke-dashoffset:0;stroke-opacity:1;marker:none;enable-background:accumulate"
         id="rect4704"
         width="184.20973"
         height="54.179333"
         x="2414.1462"
         y="-71.672432"
         ry="10.433517" />
      <path
         sodipodi:nodetypes="ccccccccccc"
         inkscape:export-xdpi="90"
         inkscape:connector-curvature="0"
         inkscape:export-filename="C:\Users\Joshua\Documents\Visual Studio 2010\Projects\Three on Three Round Robin Scheduler\arrowdown.png"
         inkscape:export-ydpi="90"
         d="m 2502.5773,-161.09273 0,75.882877 -7.9449,0 5.8446,13.5155 5.8445,13.5155 5.8445,-13.5155 5.8446,-13.5155 -7.4427,0 0,-75.882877 -7.9907,0 z"
         style="fill:#000000"
         id="rect2985" />
      <g
         id="g5930">
        <path
           sodipodi:type="inkscape:offset"
           inkscape:radius="2.038625"
           inkscape:original="M 2509.2148 -137.92578 L 2494.4922 -112.42578 L 2508.1699 -116.0918 L 2501.2246 -101.01953 L 2499.8984 -104.66211 L 2498.8887 -93.115234 L 2498.8887 -93.113281 L 2508.3887 -101.08594 L 2504.2852 -99.667969 L 2516.7012 -121.62305 L 2503.0879 -117.97461 L 2516.2324 -136.04492 L 2509.2148 -137.92578 z "
           style="fill:#ffffff"
           id="path5928"
           d="m 2509.1367,-139.96289 a 2.0388289,2.0388289 0 0 0 -1.6875,1.01758 l -14.7226,25.5 a 2.0388289,2.0388289 0 0 0 2.2929,2.98828 l 9.4805,-2.54102 -3.1738,6.88477 a 2.0388289,2.0388289 0 0 0 -3.459,1.27344 l -1.0098,11.546871 a 2.0388289,2.0388289 0 0 0 -0.01,0.177735 l 0,0.002 a 2.0388289,2.0388289 0 0 0 3.3496,1.5625 l 9.5,-7.972657 a 2.0388289,2.0388289 0 0 0 -1.123,-3.589842 l 9.9004,-17.50586 a 2.0388289,2.0388289 0 0 0 -2.3028,-2.97266 l -8.0488,2.15625 9.7559,-13.41015 a 2.0388289,2.0388289 0 0 0 -1.1211,-3.16797 l -7.0176,-1.88086 a 2.0388289,2.0388289 0 0 0 -0.6055,-0.0684 z" />
        <path
           inkscape:connector-curvature="0"
           id="path2913"
           sodipodi:nodetypes="cccccccccccc"
           style="fill:#d40000;fill-opacity:1"
           d="m 2498.8882,-93.115127 1.01,-11.547503 1.3264,3.64392 6.9458,-15.07256 -13.6788,3.66548 14.7224,-25.49971 7.0189,1.88072 -13.1448,18.07027 13.6137,-3.64787 -12.4164,21.953629 4.1041,-1.417479 -9.5017,7.972727" />
      </g>
      <text
         sodipodi:linespacing="125%"
         id="text5934"
         y="-38.070312"
         x="2437.5073"
         style="font-style:normal;font-weight:normal;font-size:25px;line-height:125%;font-family:Sans;letter-spacing:0px;word-spacing:0px;fill:#000000;fill-opacity:1;stroke:none;stroke-width:1px;stroke-linecap:butt;stroke-linejoin:miter;stroke-opacity:1"
         xml:space="preserve"><tspan
           style="font-style:normal;font-variant:normal;font-weight:normal;font-stretch:normal;font-family:'DejaVu Sans';-inkscape-font-specification:'DejaVu Sans'"
           y="-38.070312"
           x="2437.5073"
           id="tspan5936"
           sodipodi:role="line">Testsystem</tspan></text>
      <text
         sodipodi:linespacing="125%"
         id="text5938"
         y="-172.47781"
         x="2426.5393"
         style="font-style:normal;font-weight:normal;font-size:25px;line-height:125%;font-family:Sans;letter-spacing:0px;word-spacing:0px;fill:#000000;fill-opacity:1;stroke:none;stroke-width:1px;stroke-linecap:butt;stroke-linejoin:miter;stroke-opacity:1"
         xml:space="preserve"><tspan
           style="font-style:normal;font-variant:normal;font-weight:normal;font-stretch:normal;font-family:'DejaVu Sans';-inkscape-font-specification:'DejaVu Sans'"
           y="-172.47781"
           x="2426.5393"
           id="tspan5940"
           sodipodi:role="line">Komponente</tspan></text>
    </g>
    <rect
       y="-803.42767"
       x="2674.832"
       height="800"
       width="800"
       id="rect5961"
       style="color:#000000;display:inline;overflow:visible;visibility:visible;opacity:1;fill:#ffffff;fill-opacity:1;fill-rule:evenodd;stroke:none;stroke-width:4;stroke-linecap:round;stroke-linejoin:round;stroke-miterlimit:4;stroke-dasharray:none;stroke-dashoffset:0;stroke-opacity:1;marker:none;enable-background:accumulate"
       inkscape:export-xdpi="93.300003"
       inkscape:export-ydpi="93.300003" />
    <rect
       style="color:#000000;display:inline;overflow:visible;visibility:visible;opacity:1;fill:#ec0000;fill-opacity:0.1956522;fill-rule:evenodd;stroke:#000000;stroke-width:8;stroke-linecap:round;stroke-linejoin:round;stroke-miterlimit:4;stroke-dasharray:none;stroke-dashoffset:0;stroke-opacity:1;marker:none;enable-background:accumulate"
       id="rect5965"
       width="736.83893"
       height="216.71733"
       x="2706.4126"
       y="-751.19867"
       ry="41.73407" />
    <g
       id="g5969"
       transform="matrix(2.5199455,0,0,2.5199455,-3538.1735,-69.678037)">
      <path
         sodipodi:type="inkscape:offset"
         inkscape:radius="2.038625"
         inkscape:original="M 2509.2148 -137.92578 L 2494.4922 -112.42578 L 2508.1699 -116.0918 L 2501.2246 -101.01953 L 2499.8984 -104.66211 L 2498.8887 -93.115234 L 2498.8887 -93.113281 L 2508.3887 -101.08594 L 2504.2852 -99.667969 L 2516.7012 -121.62305 L 2503.0879 -117.97461 L 2516.2324 -136.04492 L 2509.2148 -137.92578 z "
         style="fill:#ffffff"
         id="path5971"
         d="m 2509.1367,-139.96289 a 2.0388289,2.0388289 0 0 0 -1.6875,1.01758 l -14.7226,25.5 a 2.0388289,2.0388289 0 0 0 2.2929,2.98828 l 9.4805,-2.54102 -3.1738,6.88477 a 2.0388289,2.0388289 0 0 0 -3.459,1.27344 l -1.0098,11.546871 a 2.0388289,2.0388289 0 0 0 -0.01,0.177735 l 0,0.002 a 2.0388289,2.0388289 0 0 0 3.3496,1.5625 l 9.5,-7.972657 a 2.0388289,2.0388289 0 0 0 -1.123,-3.589842 l 9.9004,-17.50586 a 2.0388289,2.0388289 0 0 0 -2.3028,-2.97266 l -8.0488,2.15625 9.7559,-13.41015 a 2.0388289,2.0388289 0 0 0 -1.1211,-3.16797 l -7.0176,-1.88086 a 2.0388289,2.0388289 0 0 0 -0.6055,-0.0684 z" />
      <path
         inkscape:connector-curvature="0"
         id="path5973"
         sodipodi:nodetypes="cccccccccccc"
         style="fill:#d40000;fill-opacity:1"
         d="m 2498.8882,-93.115127 1.01,-11.547503 1.3264,3.64392 6.9458,-15.07256 -13.6788,3.66548 14.7224,-25.49971 7.0189,1.88072 -13.1448,18.07027 13.6137,-3.64787 -12.4164,21.953629 4.1041,-1.417479 -9.5017,7.972727" />
    </g>
    <text
       sodipodi:linespacing="125%"
       id="text5975"
       y="-616.79016"
       x="2755.7642"
       style="font-style:normal;font-weight:normal;font-size:100px;line-height:125%;font-family:Sans;letter-spacing:0px;word-spacing:0px;fill:#000000;fill-opacity:1;stroke:none;stroke-width:1px;stroke-linecap:butt;stroke-linejoin:miter;stroke-opacity:1"
       xml:space="preserve"><tspan
         style="font-style:normal;font-variant:normal;font-weight:normal;font-stretch:normal;font-family:'DejaVu Sans';-inkscape-font-specification:'DejaVu Sans'"
         y="-616.79016"
         x="2755.7642"
         id="tspan5977"
         sodipodi:role="line">Testsystem</tspan></text>
    <path
       style="color:#000000;display:inline;overflow:visible;visibility:visible;opacity:1;fill:none;fill-opacity:0.1956522;fill-rule:evenodd;stroke:#000000;stroke-width:5;stroke-linecap:round;stroke-linejoin:round;stroke-miterlimit:4;stroke-dasharray:20, 20;stroke-dashoffset:0;stroke-opacity:1;marker:none;enable-background:accumulate"
       d="m 2792.3097,-483.31595 467.9943,0 72.6241,-115.42047 80.3644,115.42047 c 8.3039,12.19571 28.2894,37.56545 28.2894,84.22747 l 0,268.92278 c 0,46.662016 -37.5654,84.227468 -84.2275,84.227468 l -565.0447,0 c -46.662,0 -84.2274,-37.565452 -84.2274,-84.227468 l 0,-268.92278 c 0,-46.66202 37.5654,-84.22747 84.2274,-84.22747 z"
       id="rect6134"
       inkscape:connector-curvature="0"
       sodipodi:nodetypes="scccsssssss" />
    <text
       xml:space="preserve"
       style="font-style:normal;font-weight:normal;font-size:49.55079269px;line-height:125%;font-family:Sans;letter-spacing:0px;word-spacing:0px;fill:#000000;fill-opacity:1;stroke:none;stroke-width:1px;stroke-linecap:butt;stroke-linejoin:miter;stroke-opacity:1"
       x="2812.4907"
       y="-431.52069"
       id="text6137"
       sodipodi:linespacing="125%"><tspan
         sodipodi:role="line"
         x="2812.4907"
         y="-431.52069"
         style="font-style:normal;font-variant:normal;font-weight:normal;font-stretch:normal;font-family:monospace;-inkscape-font-specification:monospace"
         id="tspan6145">var a = rand[0 .. 9]</tspan><tspan
         sodipodi:role="line"
         x="2812.4907"
         y="-369.58221"
         style="font-style:normal;font-variant:normal;font-weight:normal;font-stretch:normal;font-family:monospace;-inkscape-font-specification:monospace"
         id="tspan6157">if rand[0 .. 9] == 0:</tspan><tspan
         sodipodi:role="line"
         x="2812.4907"
         y="-307.64371"
         style="font-style:normal;font-variant:normal;font-weight:normal;font-stretch:normal;font-family:monospace;-inkscape-font-specification:monospace"
         id="tspan6165">    a = -1</tspan><tspan
         sodipodi:role="line"
         x="2812.4907"
         y="-245.70522"
         style="font-style:normal;font-variant:normal;font-weight:normal;font-stretch:normal;font-family:monospace;-inkscape-font-specification:monospace"
         id="tspan6167">if a &gt;= 0:</tspan><tspan
         sodipodi:role="line"
         x="2812.4907"
         y="-183.76672"
         style="font-style:normal;font-variant:normal;font-weight:normal;font-stretch:normal;font-family:monospace;-inkscape-font-specification:monospace"
         id="tspan6171">    do_something(a)</tspan><tspan
         sodipodi:role="line"
         x="2812.4907"
         y="-121.82824"
         style="font-style:normal;font-variant:normal;font-weight:normal;font-stretch:normal;font-family:monospace;-inkscape-font-specification:monospace"
         id="tspan6173">else:</tspan><tspan
         sodipodi:role="line"
         x="2812.4907"
         y="-59.889744"
         style="font-style:normal;font-variant:normal;font-weight:normal;font-stretch:normal;font-family:monospace;-inkscape-font-specification:monospace"
         id="tspan6175">    throw(err)</tspan><tspan
         sodipodi:role="line"
         x="2812.4907"
         y="2.0487452"
         style="font-style:normal;font-variant:normal;font-weight:normal;font-stretch:normal;font-family:monospace;-inkscape-font-specification:monospace"
         id="tspan6169" /><tspan
         sodipodi:role="line"
         x="2812.4907"
         y="63.987236"
         style="font-style:normal;font-variant:normal;font-weight:normal;font-stretch:normal;font-family:monospace;-inkscape-font-specification:monospace"
         id="tspan6161" /><tspan
         sodipodi:role="line"
         x="2812.4907"
         y="125.92573"
         style="font-style:normal;font-variant:normal;font-weight:normal;font-stretch:normal;font-family:monospace;-inkscape-font-specification:monospace"
         id="tspan6141" /><tspan
         sodipodi:role="line"
         x="2812.4907"
         y="187.86421"
         style="font-style:normal;font-variant:normal;font-weight:normal;font-stretch:normal;font-family:monospace;-inkscape-font-specification:monospace"
         id="tspan6143" /></text>
    <g
       id="g4546"
       inkscape:export-xdpi="90"
       inkscape:export-ydpi="90">
      <rect
         ry="41.607311"
         y="-932.19946"
         x="-91.836685"
         height="990.64899"
         width="1790.2886"
         id="rect4544"
         style="color:#000000;display:inline;overflow:visible;visibility:visible;opacity:1;fill:#ffffff;fill-opacity:1;fill-rule:evenodd;stroke:none;stroke-width:7.113;stroke-linecap:round;stroke-linejoin:round;stroke-miterlimit:4;stroke-dasharray:21.339, 21.33899999999999864;stroke-dashoffset:0;stroke-opacity:1;marker:none;enable-background:accumulate" />
      <g
         transform="translate(-392.48367,0)"
         id="g4505">
        <rect
           style="color:#000000;display:inline;overflow:visible;visibility:visible;opacity:1;fill:#ffffff;fill-opacity:1;fill-rule:evenodd;stroke:#000000;stroke-width:7.3829999;stroke-linecap:round;stroke-linejoin:round;stroke-miterlimit:4;stroke-dasharray:22.149, 22.149;stroke-dashoffset:0;stroke-opacity:1;marker:none;enable-background:accumulate"
           id="rect4400"
           width="881.63599"
           height="915.27393"
           x="335.36124"
           y="-890.89392"
           ry="38.514751" />
        <g
           id="g4321"
           transform="translate(-264.10113,14.188201)">
          <rect
             style="color:#000000;display:inline;overflow:visible;visibility:visible;opacity:1;fill:#f1c3c3;fill-opacity:1;fill-rule:evenodd;stroke:#000000;stroke-width:7.38288879;stroke-linecap:round;stroke-linejoin:round;stroke-miterlimit:4;stroke-dasharray:none;stroke-dashoffset:0;stroke-opacity:1;marker:none;enable-background:accumulate"
             id="rect4284"
             width="742.24921"
             height="200"
             x="669.15576"
             y="-751.5072"
             ry="38.514751" />
          <text
             xml:space="preserve"
             style="font-style:normal;font-weight:normal;font-size:92.28610992px;line-height:125%;font-family:Sans;letter-spacing:0px;word-spacing:0px;fill:#000000;fill-opacity:1;stroke:none;stroke-width:1px;stroke-linecap:butt;stroke-linejoin:miter;stroke-opacity:1"
             x="711.35339"
             y="-627.46686"
             id="text4300"
             sodipodi:linespacing="125%"><tspan
               sodipodi:role="line"
               id="tspan4302"
               x="711.35339"
               y="-627.46686"
               style="font-style:normal;font-variant:normal;font-weight:normal;font-stretch:normal;font-family:'DejaVu Sans';-inkscape-font-specification:'DejaVu Sans'">Testprogramm</tspan></text>
        </g>
        <g
           id="g4326"
           transform="translate(-264.10113,20.133236)">
          <rect
             ry="38.514751"
             y="-261.29443"
             x="669.15576"
             height="200"
             width="742.24921"
             id="rect4315"
             style="color:#000000;display:inline;overflow:visible;visibility:visible;opacity:1;fill:#f1c3c3;fill-opacity:1;fill-rule:evenodd;stroke:#000000;stroke-width:7.38288879;stroke-linecap:round;stroke-linejoin:round;stroke-miterlimit:4;stroke-dasharray:none;stroke-dashoffset:0;stroke-opacity:1;marker:none;enable-background:accumulate" />
          <text
             sodipodi:linespacing="125%"
             id="text4317"
             y="-137.25409"
             x="681.09454"
             style="font-style:normal;font-weight:normal;font-size:92.28610992px;line-height:125%;font-family:Sans;letter-spacing:0px;word-spacing:0px;fill:#000000;fill-opacity:1;stroke:none;stroke-width:1px;stroke-linecap:butt;stroke-linejoin:miter;stroke-opacity:1"
             xml:space="preserve"><tspan
               style="font-style:normal;font-variant:normal;font-weight:normal;font-stretch:normal;font-family:'DejaVu Sans';-inkscape-font-specification:'DejaVu Sans'"
               y="-137.25409"
               x="681.09454"
               id="tspan4319"
               sodipodi:role="line">Betriebssystem</tspan></text>
        </g>
        <g
           id="g4385"
           transform="translate(-264.10113,14.188215)">
          <g
             transform="translate(0,-7.781155)"
             id="g4345">
            <g
               id="g4339"
               transform="matrix(0.84979817,0,0,0.84979817,157.12884,-59.403178)">
              <path
                 id="path4288"
                 style="fill:#000000"
                 d="m 1233.2592,-205.53862 0,-280.11743 -29.3281,0 21.575,-49.89172 21.5746,-49.89171 21.5747,49.89171 21.575,49.89172 -27.4743,0 0,280.11743 -29.4973,0 z"
                 inkscape:export-ydpi="90"
                 inkscape:export-filename="C:\Users\Joshua\Documents\Visual Studio 2010\Projects\Three on Three Round Robin Scheduler\arrowdown.png"
                 inkscape:connector-curvature="0"
                 inkscape:export-xdpi="90"
                 sodipodi:nodetypes="ccccccccccc" />
              <g
                 transform="matrix(3.6914445,0,0,3.6914445,-8004.866,40.350012)"
                 id="g4290">
                <path
                   d="m 2509.1367,-139.96289 a 2.0388289,2.0388289 0 0 0 -1.6875,1.01758 l -14.7226,25.5 a 2.0388289,2.0388289 0 0 0 2.2929,2.98828 l 9.4805,-2.54102 -3.1738,6.88477 a 2.0388289,2.0388289 0 0 0 -3.459,1.27344 l -1.0098,11.546871 a 2.0388289,2.0388289 0 0 0 -0.01,0.177735 l 0,0.002 a 2.0388289,2.0388289 0 0 0 3.3496,1.5625 l 9.5,-7.972657 a 2.0388289,2.0388289 0 0 0 -1.123,-3.589842 l 9.9004,-17.50586 a 2.0388289,2.0388289 0 0 0 -2.3028,-2.97266 l -8.0488,2.15625 9.7559,-13.41015 a 2.0388289,2.0388289 0 0 0 -1.1211,-3.16797 l -7.0176,-1.88086 a 2.0388289,2.0388289 0 0 0 -0.6055,-0.0684 z"
                   id="path4292"
                   style="fill:#ffffff"
                   inkscape:original="M 2509.2148 -137.92578 L 2494.4922 -112.42578 L 2508.1699 -116.0918 L 2501.2246 -101.01953 L 2499.8984 -104.66211 L 2498.8887 -93.115234 L 2498.8887 -93.113281 L 2508.3887 -101.08594 L 2504.2852 -99.667969 L 2516.7012 -121.62305 L 2503.0879 -117.97461 L 2516.2324 -136.04492 L 2509.2148 -137.92578 z "
                   inkscape:radius="2.038625"
                   sodipodi:type="inkscape:offset" />
                <path
                   d="m 2498.8882,-93.115127 1.01,-11.547503 1.3264,3.64392 6.9458,-15.07256 -13.6788,3.66548 14.7224,-25.49971 7.0189,1.88072 -13.1448,18.07027 13.6137,-3.64787 -12.4164,21.953629 4.1041,-1.417479 -9.5017,7.972727"
                   style="fill:#d40000;fill-opacity:1"
                   sodipodi:nodetypes="cccccccccccc"
                   id="path4294"
                   inkscape:connector-curvature="0" />
              </g>
            </g>
            <path
               id="path4331"
               style="fill:#000000"
               d="m 861.30488,-556.90858 0,238.04328 -24.92302,0 18.33441,42.39789 18.33408,42.39789 18.33414,-42.39789 18.3344,-42.39789 -23.34761,0 0,-238.04328 -25.06672,0 z"
               inkscape:export-ydpi="90"
               inkscape:export-filename="C:\Users\Joshua\Documents\Visual Studio 2010\Projects\Three on Three Round Robin Scheduler\arrowdown.png"
               inkscape:connector-curvature="0"
               inkscape:export-xdpi="90"
               sodipodi:nodetypes="ccccccccccc" />
            <path
               sodipodi:nodetypes="ccccccccccc"
               inkscape:export-xdpi="90"
               inkscape:connector-curvature="0"
               inkscape:export-filename="C:\Users\Joshua\Documents\Visual Studio 2010\Projects\Three on Three Round Robin Scheduler\arrowdown.png"
               inkscape:export-ydpi="90"
               d="m 1571.554,-407.23452 -256.3836,0 0,-24.923 -42.3979,18.3344 -42.3979,18.334 42.3979,18.3342 42.3979,18.3344 0,-23.3476 256.3836,0 0,-25.0667 z"
               style="fill:#000000"
               id="path4542" />
          </g>
          <text
             transform="matrix(0,-1,1,0,0,0)"
             sodipodi:linespacing="125%"
             id="text4353"
             y="829.75153"
             x="305.77264"
             style="font-style:normal;font-weight:normal;font-size:50px;line-height:125%;font-family:Sans;letter-spacing:0px;word-spacing:0px;fill:#000000;fill-opacity:1;stroke:none;stroke-width:1px;stroke-linecap:butt;stroke-linejoin:miter;stroke-opacity:1"
             xml:space="preserve"><tspan
               y="829.75153"
               x="305.77264"
               id="tspan4355"
               sodipodi:role="line">Anfrage</tspan></text>
          <text
             xml:space="preserve"
             style="font-style:normal;font-weight:normal;font-size:50px;line-height:125%;font-family:Sans;letter-spacing:0px;word-spacing:0px;fill:#000000;fill-opacity:1;stroke:none;stroke-width:1px;stroke-linecap:butt;stroke-linejoin:miter;stroke-opacity:1"
             x="305.05243"
             y="1166.9349"
             id="text4357"
             sodipodi:linespacing="125%"
             transform="matrix(0,-1,1,0,0,0)"><tspan
               sodipodi:role="line"
               id="tspan4359"
               x="305.05243"
               y="1166.9349">Antwort</tspan></text>
        </g>
        <text
           xml:space="preserve"
           style="font-style:normal;font-weight:normal;font-size:25px;line-height:125%;font-family:Sans;letter-spacing:0px;word-spacing:0px;fill:#000000;fill-opacity:1;stroke:none;stroke-width:1px;stroke-linecap:butt;stroke-linejoin:miter;stroke-opacity:1"
           x="363.1391"
           y="-811.01819"
           id="text4428"
           sodipodi:linespacing="125%"><tspan
             sodipodi:role="line"
             id="tspan4430"
             x="363.1391"
             y="-811.01819"
             style="font-size:60px">Betriebsumgebung</tspan></text>
      </g>
      <g
         transform="translate(0,43.908154)"
         id="g4537">
        <rect
           style="color:#000000;display:inline;overflow:visible;visibility:visible;opacity:1;fill:#f1c3c3;fill-opacity:1;fill-rule:evenodd;stroke:#000000;stroke-width:7.38288879;stroke-linecap:round;stroke-linejoin:round;stroke-miterlimit:4;stroke-dasharray:none;stroke-dashoffset:0;stroke-opacity:1;marker:none;enable-background:accumulate"
           id="rect4530"
           width="742.24921"
           height="200"
           x="915.3855"
           y="-532.99011"
           ry="38.514751" />
        <text
           xml:space="preserve"
           style="font-style:normal;font-weight:normal;font-size:25px;line-height:125%;font-family:Sans;letter-spacing:0px;word-spacing:0px;fill:#000000;fill-opacity:1;stroke:none;stroke-width:1px;stroke-linecap:butt;stroke-linejoin:miter;stroke-opacity:1"
           x="964.70282"
           y="-407.53033"
           id="text4532"
           sodipodi:linespacing="125%"><tspan
             sodipodi:role="line"
             id="tspan4534"
             x="964.70282"
             y="-407.53033"
             style="font-size:92.28610992px">Fehlerinjektor</tspan></text>
      </g>
    </g>
    <g
       id="g4878"
       inkscape:export-xdpi="90"
       inkscape:export-ydpi="90">
      <rect
         style="color:#000000;display:inline;overflow:visible;visibility:visible;opacity:1;fill:#ffffff;fill-opacity:1;fill-rule:evenodd;stroke:none;stroke-width:7.11299992;stroke-linecap:round;stroke-linejoin:round;stroke-miterlimit:4;stroke-dasharray:21.339, 21.339;stroke-dashoffset:0;stroke-opacity:1;marker:none;enable-background:accumulate"
         id="rect4498"
         width="2226.0332"
         height="990.64899"
         x="-491.26926"
         y="-2068.2483"
         ry="41.607311" />
      <rect
         style="color:#000000;display:inline;overflow:visible;visibility:visible;opacity:1;fill:#ffffff;fill-opacity:1;fill-rule:evenodd;stroke:#000000;stroke-width:8.87583542;stroke-linecap:round;stroke-linejoin:round;stroke-miterlimit:4;stroke-dasharray:26.62750787, 26.62750787;stroke-dashoffset:0;stroke-opacity:1;marker:none;enable-background:accumulate"
         id="rect4313"
         width="1276.2949"
         height="913.78107"
         x="-452.52774"
         y="-2041.922"
         ry="38.451931" />
      <rect
         ry="38.514751"
         y="-1889.0935"
         x="-379.91269"
         height="200"
         width="742.24921"
         id="rect4317"
         style="color:#000000;display:inline;overflow:visible;visibility:visible;opacity:1;fill:#f1c3c3;fill-opacity:1;fill-rule:evenodd;stroke:#000000;stroke-width:7.38288879;stroke-linecap:round;stroke-linejoin:round;stroke-miterlimit:4;stroke-dasharray:none;stroke-dashoffset:0;stroke-opacity:1;marker:none;enable-background:accumulate" />
      <text
         sodipodi:linespacing="125%"
         id="text4319"
         y="-1765.0531"
         x="-337.71509"
         style="font-style:normal;font-weight:normal;font-size:92.28610992px;line-height:125%;font-family:Sans;letter-spacing:0px;word-spacing:0px;fill:#000000;fill-opacity:1;stroke:none;stroke-width:1px;stroke-linecap:butt;stroke-linejoin:miter;stroke-opacity:1"
         xml:space="preserve"><tspan
           style="font-style:normal;font-variant:normal;font-weight:normal;font-stretch:normal;font-family:'DejaVu Sans';-inkscape-font-specification:'DejaVu Sans'"
           y="-1765.0531"
           x="-337.71509"
           id="tspan4321"
           sodipodi:role="line">Testprogramm</tspan></text>
      <rect
         style="color:#000000;display:inline;overflow:visible;visibility:visible;opacity:1;fill:#f1c3c3;fill-opacity:1;fill-rule:evenodd;stroke:#000000;stroke-width:7.38288879;stroke-linecap:round;stroke-linejoin:round;stroke-miterlimit:4;stroke-dasharray:none;stroke-dashoffset:0;stroke-opacity:1;marker:none;enable-background:accumulate"
         id="rect4325"
         width="742.24921"
         height="200"
         x="-379.91269"
         y="-1392.9358"
         ry="38.514751" />
      <text
         xml:space="preserve"
         style="font-style:normal;font-weight:normal;font-size:92.28610992px;line-height:125%;font-family:Sans;letter-spacing:0px;word-spacing:0px;fill:#000000;fill-opacity:1;stroke:none;stroke-width:1px;stroke-linecap:butt;stroke-linejoin:miter;stroke-opacity:1"
         x="-367.97394"
         y="-1268.8954"
         id="text4327"
         sodipodi:linespacing="125%"><tspan
           sodipodi:role="line"
           id="tspan4329"
           x="-367.97394"
           y="-1268.8954"
           style="font-style:normal;font-variant:normal;font-weight:normal;font-stretch:normal;font-family:'DejaVu Sans';-inkscape-font-specification:'DejaVu Sans'">Betriebssystem</tspan></text>
      <text
         xml:space="preserve"
         style="font-style:normal;font-weight:normal;font-size:25px;line-height:125%;font-family:Sans;letter-spacing:0px;word-spacing:0px;fill:#000000;fill-opacity:1;stroke:none;stroke-width:1px;stroke-linecap:butt;stroke-linejoin:miter;stroke-opacity:1"
         x="-421.82825"
         y="-1962.7927"
         id="text4358"
         sodipodi:linespacing="125%"><tspan
           sodipodi:role="line"
           id="tspan4360"
           x="-421.82825"
           y="-1962.7927"
           style="font-size:60px">Betriebsumgebung</tspan></text>
      <rect
         style="color:#000000;display:inline;overflow:visible;visibility:visible;opacity:1;fill:#f1c3c3;fill-opacity:1;fill-rule:evenodd;stroke:#000000;stroke-width:7.38288879;stroke-linecap:round;stroke-linejoin:round;stroke-miterlimit:4;stroke-dasharray:none;stroke-dashoffset:0;stroke-opacity:1;marker:none;enable-background:accumulate"
         id="rect4364"
         width="742.24921"
         height="200"
         x="915.3855"
         y="-1640.8564"
         ry="38.514751" />
      <text
         xml:space="preserve"
         style="font-style:normal;font-weight:normal;font-size:25px;line-height:125%;font-family:Sans;letter-spacing:0px;word-spacing:0px;fill:#000000;fill-opacity:1;stroke:none;stroke-width:1px;stroke-linecap:butt;stroke-linejoin:miter;stroke-opacity:1"
         x="964.70282"
         y="-1515.3966"
         id="text4366"
         sodipodi:linespacing="125%"><tspan
           sodipodi:role="line"
           id="tspan4368"
           x="964.70282"
           y="-1515.3966"
           style="font-size:92.28610992px">Fehlerinjektor</tspan></text>
      <path
         sodipodi:nodetypes="cccccccccccccccc"
         inkscape:connector-curvature="0"
         d="m -1445.1008,-1113.7939 179.507,0 0,25.0455 -179.507,0 z m 154.4643,25.0456 0,634.19495 -24.923,0 18.3344,42.3979 18.334,42.3979 18.3342,-42.3979 18.3344,-42.3979 -23.3476,0 0,-634.19495 -25.0667,0 z"
         style="color:#000000;display:inline;overflow:visible;visibility:visible;opacity:1;fill:#000000;fill-opacity:1;fill-rule:evenodd;stroke:none;stroke-width:7.11299992;stroke-linecap:round;stroke-linejoin:round;stroke-miterlimit:4;stroke-dasharray:21.339, 21.339;stroke-dashoffset:0;stroke-opacity:1;marker:none;enable-background:accumulate"
         transform="matrix(0,1,-1,0,0,0)"
         id="rect4460" />
      <path
         sodipodi:nodetypes="cccccccccccccccc"
         inkscape:connector-curvature="0"
         id="path4470"
         style="color:#000000;display:inline;overflow:visible;visibility:visible;opacity:1;fill:#000000;fill-opacity:1;fill-rule:evenodd;stroke:none;stroke-width:7.11299992;stroke-linecap:round;stroke-linejoin:round;stroke-miterlimit:4;stroke-dasharray:21.339, 21.339;stroke-dashoffset:0;stroke-opacity:1;marker:none;enable-background:accumulate"
         d="m 1113.7939,-1637.7646 0,-179.507 -25.0455,0 0,179.507 z m -25.0456,-154.4643 -634.19495,0 0,24.923 -42.3979,-18.3344 -42.3979,-18.334 42.3979,-18.3342 42.3979,-18.3344 0,23.3476 634.19495,0 0,25.0667 z" />
      <rect
         ry="38.514751"
         y="-1614.5768"
         x="35.048302"
         height="200"
         width="742.24921"
         id="rect4472"
         style="color:#000000;display:inline;overflow:visible;visibility:visible;opacity:1;fill:#f1c3c3;fill-opacity:1;fill-rule:evenodd;stroke:#000000;stroke-width:7.38288879;stroke-linecap:round;stroke-linejoin:round;stroke-miterlimit:4;stroke-dasharray:none;stroke-dashoffset:0;stroke-opacity:1;marker:none;enable-background:accumulate" />
      <path
         sodipodi:nodetypes="ccccccccccc"
         inkscape:export-xdpi="90"
         inkscape:connector-curvature="0"
         inkscape:export-filename="C:\Users\Joshua\Documents\Visual Studio 2010\Projects\Three on Three Round Robin Scheduler\arrowdown.png"
         inkscape:export-ydpi="90"
         d="m 915.97522,-1508.6351 -55.09821,0 0,24.923 -42.3979,-18.3344 -42.3979,-18.3341 42.3979,-18.3342 42.3979,-18.3344 0,23.3477 55.09821,0 0,25.0667 z"
         style="fill:#000000"
         id="path4474" />
      <text
         sodipodi:linespacing="125%"
         id="text4476"
         y="-1515.3966"
         x="964.70282"
         style="font-style:normal;font-weight:normal;font-size:25px;line-height:125%;font-family:Sans;letter-spacing:0px;word-spacing:0px;fill:#000000;fill-opacity:1;stroke:none;stroke-width:1px;stroke-linecap:butt;stroke-linejoin:miter;stroke-opacity:1"
         xml:space="preserve"><tspan
           style="font-size:92.28610992px"
           y="-1515.3966"
           x="964.70282"
           id="tspan4478"
           sodipodi:role="line">Fehlerinjektor</tspan></text>
      <text
         xml:space="preserve"
         style="font-style:normal;font-weight:normal;font-size:25px;line-height:125%;font-family:Sans;letter-spacing:0px;word-spacing:0px;fill:#000000;fill-opacity:1;stroke:none;stroke-width:1px;stroke-linecap:butt;stroke-linejoin:miter;stroke-opacity:1"
         x="267.7692"
         y="-1497.9724"
         id="text4480"
         sodipodi:linespacing="125%"><tspan
           sodipodi:role="line"
           id="tspan4482"
           x="267.7692"
           y="-1497.9724"
           style="font-size:92.28610992px">Client</tspan></text>
      <g
         transform="translate(-454.98049,0)"
         id="g4490">
        <path
           sodipodi:nodetypes="ccccccccccc"
           inkscape:export-xdpi="90"
           inkscape:connector-curvature="0"
           inkscape:export-filename="C:\Users\Joshua\Documents\Visual Studio 2010\Projects\Three on Three Round Robin Scheduler\arrowdown.png"
           inkscape:export-ydpi="90"
           d="m 204.72008,-1633.5426 0,169.3098 -24.92302,0 18.33441,42.3979 18.33408,42.3979 18.33414,-42.3979 18.3344,-42.3979 -23.34761,0 0,-169.3098 -25.06672,0 z"
           style="fill:#000000"
           id="path4346" />
        <path
           id="path4486"
           style="fill:#000000"
           d="m 204.72008,-1444.28 0,-173.2003 -24.92302,0 18.33441,-42.3979 18.33408,-42.3979 18.33414,42.3979 18.3344,42.3979 -23.34761,0 0,173.2003 -25.06672,0 z"
           inkscape:export-ydpi="90"
           inkscape:export-filename="C:\Users\Joshua\Documents\Visual Studio 2010\Projects\Three on Three Round Robin Scheduler\arrowdown.png"
           inkscape:connector-curvature="0"
           inkscape:export-xdpi="90"
           sodipodi:nodetypes="ccccccccccc" />
      </g>
      <path
         id="path4494"
         style="fill:#000000"
         d="m 188.4468,-1613.1895 0,-20.7315 -24.923,0 18.3344,-42.3979 18.3341,-42.3979 18.3342,42.3979 18.3344,42.3979 -23.3477,0 0,20.7315 -25.0667,0 z"
         inkscape:export-ydpi="90"
         inkscape:export-filename="C:\Users\Joshua\Documents\Visual Studio 2010\Projects\Three on Three Round Robin Scheduler\arrowdown.png"
         inkscape:connector-curvature="0"
         inkscape:export-xdpi="90"
         sodipodi:nodetypes="ccccccccccc" />
    </g>
    <path
       sodipodi:type="inkscape:offset"
       inkscape:radius="2.038625"
       inkscape:original="M 2509.2148 -137.92578 L 2494.4922 -112.42578 L 2508.1699 -116.0918 L 2501.2246 -101.01953 L 2499.8984 -104.66211 L 2498.8887 -93.115234 L 2498.8887 -93.113281 L 2508.3887 -101.08594 L 2504.2852 -99.667969 L 2516.7012 -121.62305 L 2503.0879 -117.97461 L 2516.2324 -136.04492 L 2509.2148 -137.92578 z "
       style="fill:#ffffff"
       id="path4530"
       d="m 2509.1367,-139.96289 a 2.0388289,2.0388289 0 0 0 -1.6875,1.01758 l -14.7226,25.5 a 2.0388289,2.0388289 0 0 0 2.2929,2.98828 l 9.4805,-2.54102 -3.1738,6.88477 a 2.0388289,2.0388289 0 0 0 -3.459,1.27344 l -1.0098,11.546871 a 2.0388289,2.0388289 0 0 0 -0.01,0.177735 l 0,0.002 a 2.0388289,2.0388289 0 0 0 3.3496,1.5625 l 9.5,-7.972657 a 2.0388289,2.0388289 0 0 0 -1.123,-3.589842 l 9.9004,-17.50586 a 2.0388289,2.0388289 0 0 0 -2.3028,-2.97266 l -8.0488,2.15625 9.7559,-13.41015 a 2.0388289,2.0388289 0 0 0 -1.1211,-3.16797 l -7.0176,-1.88086 a 2.0388289,2.0388289 0 0 0 -0.6055,-0.0684 z" />
    <rect
       ry="57.92762"
       y="2026.5632"
       x="-2582.0369"
       height="1376.6061"
       width="1171.4973"
       id="rect4405"
       style="color:#000000;display:inline;overflow:visible;visibility:visible;opacity:1;fill:#ffffff;fill-opacity:1;fill-rule:evenodd;stroke:#000000;stroke-width:10.43729877;stroke-linecap:round;stroke-linejoin:round;stroke-miterlimit:4;stroke-dasharray:31.31189874, 31.31189874;stroke-dashoffset:0;stroke-opacity:1;marker:none;enable-background:accumulate" />
    <g
       transform="translate(-3201.0347,2952.1267)"
       id="g4407">
      <rect
         ry="38.514751"
         y="-751.5072"
         x="669.15576"
         height="200"
         width="742.24921"
         id="rect4409"
         style="color:#000000;display:inline;overflow:visible;visibility:visible;opacity:1;fill:#f1c3c3;fill-opacity:1;fill-rule:evenodd;stroke:#000000;stroke-width:7.38288879;stroke-linecap:round;stroke-linejoin:round;stroke-miterlimit:4;stroke-dasharray:none;stroke-dashoffset:0;stroke-opacity:1;marker:none;enable-background:accumulate" />
      <text
         sodipodi:linespacing="125%"
         id="text4411"
         y="-627.46686"
         x="711.35339"
         style="font-style:normal;font-weight:normal;font-size:92.28610992px;line-height:125%;font-family:Sans;letter-spacing:0px;word-spacing:0px;fill:#000000;fill-opacity:1;stroke:none;stroke-width:1px;stroke-linecap:butt;stroke-linejoin:miter;stroke-opacity:1"
         xml:space="preserve"><tspan
           style="font-style:normal;font-variant:normal;font-weight:normal;font-stretch:normal;font-family:'DejaVu Sans';-inkscape-font-specification:'DejaVu Sans'"
           y="-627.46686"
           x="711.35339"
           id="tspan4413"
           sodipodi:role="line">Testprogramm</tspan></text>
    </g>
    <g
       transform="translate(-3201.0347,3401.9083)"
       id="g4415">
      <rect
         style="color:#000000;display:inline;overflow:visible;visibility:visible;opacity:1;fill:#f1c3c3;fill-opacity:1;fill-rule:evenodd;stroke:#000000;stroke-width:7.38288879;stroke-linecap:round;stroke-linejoin:round;stroke-miterlimit:4;stroke-dasharray:none;stroke-dashoffset:0;stroke-opacity:1;marker:none;enable-background:accumulate"
         id="rect4417"
         width="742.24921"
         height="200"
         x="669.15576"
         y="-261.29443"
         ry="38.514751" />
      <text
         xml:space="preserve"
         style="font-style:normal;font-weight:normal;font-size:92.28610992px;line-height:125%;font-family:Sans;letter-spacing:0px;word-spacing:0px;fill:#000000;fill-opacity:1;stroke:none;stroke-width:1px;stroke-linecap:butt;stroke-linejoin:miter;stroke-opacity:1"
         x="805.84753"
         y="-126.88992"
         id="text4419"
         sodipodi:linespacing="125%"><tspan
           sodipodi:role="line"
           id="tspan4421"
           x="805.84753"
           y="-126.88992"
           style="font-style:normal;font-variant:normal;font-weight:normal;font-stretch:normal;font-family:'DejaVu Sans';-inkscape-font-specification:'DejaVu Sans'">Bibliothek</tspan></text>
    </g>
    <g
       transform="matrix(0.72323025,0,0,0.70833991,-2763.9676,3011.6127)"
       id="g4427">
      <path
         sodipodi:nodetypes="ccccccccccc"
         inkscape:export-xdpi="90"
         inkscape:connector-curvature="0"
         inkscape:export-filename="C:\Users\Joshua\Documents\Visual Studio 2010\Projects\Three on Three Round Robin Scheduler\arrowdown.png"
         inkscape:export-ydpi="90"
         d="m 1233.2592,-205.53862 0,-551.17374 -29.3281,0 21.575,-49.89172 21.5746,-49.89171 21.5747,49.89171 21.575,49.89172 -27.4743,0 0,551.17374 -29.4973,0 z"
         style="fill:#000000"
         id="path4429" />
      <g
         id="g4431"
         transform="matrix(3.6914445,0,0,3.6914445,-8004.866,40.350012)">
        <path
           sodipodi:type="inkscape:offset"
           inkscape:radius="2.038625"
           inkscape:original="M 2509.2148 -137.92578 L 2494.4922 -112.42578 L 2508.1699 -116.0918 L 2501.2246 -101.01953 L 2499.8984 -104.66211 L 2498.8887 -93.115234 L 2498.8887 -93.113281 L 2508.3887 -101.08594 L 2504.2852 -99.667969 L 2516.7012 -121.62305 L 2503.0879 -117.97461 L 2516.2324 -136.04492 L 2509.2148 -137.92578 z "
           style="fill:#ffffff"
           id="path4433"
           d="m 2509.1367,-139.96289 a 2.0388289,2.0388289 0 0 0 -1.6875,1.01758 l -14.7226,25.5 a 2.0388289,2.0388289 0 0 0 2.2929,2.98828 l 9.4805,-2.54102 -3.1738,6.88477 a 2.0388289,2.0388289 0 0 0 -3.459,1.27344 l -1.0098,11.546871 a 2.0388289,2.0388289 0 0 0 -0.01,0.177735 l 0,0.002 a 2.0388289,2.0388289 0 0 0 3.3496,1.5625 l 9.5,-7.972657 a 2.0388289,2.0388289 0 0 0 -1.123,-3.589842 l 9.9004,-17.50586 a 2.0388289,2.0388289 0 0 0 -2.3028,-2.97266 l -8.0488,2.15625 9.7559,-13.41015 a 2.0388289,2.0388289 0 0 0 -1.1211,-3.16797 l -7.0176,-1.88086 a 2.0388289,2.0388289 0 0 0 -0.6055,-0.0684 z"
           transform="translate(0,-27.153155)" />
        <path
           inkscape:connector-curvature="0"
           id="path4435"
           sodipodi:nodetypes="cccccccccccc"
           style="fill:#d40000;fill-opacity:1"
           d="m 2498.8882,-120.26828 1.01,-11.5475 1.3264,3.64392 6.9458,-15.07256 -13.6788,3.66548 14.7224,-25.49971 7.0189,1.88072 -13.1448,18.07027 13.6137,-3.64787 -12.4164,21.95363 4.1041,-1.41748 -9.5017,7.97273" />
      </g>
    </g>
    <path
       sodipodi:nodetypes="cccccccccccccccc"
       inkscape:export-xdpi="90"
       inkscape:connector-curvature="0"
       inkscape:export-filename="C:\Users\Joshua\Documents\Visual Studio 2010\Projects\Three on Three Round Robin Scheduler\arrowdown.png"
       inkscape:export-ydpi="90"
       d="m -2019.1112,2822.2501 c 6.185,-70.8421 -168.4992,-77.9501 -236.7107,-130.1535 l 0,-287.8273 -79.0668,0 4e-4,0 0,667.2139 -24.923,0 56.6684,69.6252 48.6686,-69.6252 -23.3476,0 0,-329.5506 c 86.0832,31.0322 220.754,49.0899 204.9621,80.4426 l -39.8454,-0.576 72.8761,41.6159 69.4334,-40.8966 z"
       style="fill:#000000"
       id="path4437" />
    <text
       transform="matrix(0,-1,1,0,0,0)"
       sodipodi:linespacing="125%"
       id="text4441"
       y="-2375.4712"
       x="-3068.9314"
       style="font-style:normal;font-weight:normal;font-size:50px;line-height:125%;font-family:Sans;letter-spacing:0px;word-spacing:0px;fill:#000000;fill-opacity:1;stroke:none;stroke-width:1px;stroke-linecap:butt;stroke-linejoin:miter;stroke-opacity:1"
       xml:space="preserve"><tspan
         y="-2375.4712"
         x="-3068.9314"
         id="tspan4443"
         sodipodi:role="line">Anfrage</tspan></text>
    <text
       xml:space="preserve"
       style="font-style:normal;font-weight:normal;font-size:42.55305862px;line-height:125%;font-family:Sans;letter-spacing:0px;word-spacing:0px;fill:#000000;fill-opacity:1;stroke:none;stroke-width:1px;stroke-linecap:butt;stroke-linejoin:miter;stroke-opacity:1"
       x="-2675.2329"
       y="-1908.3893"
       id="text4445"
       sodipodi:linespacing="125%"
       transform="matrix(0,-1,1,0,0,0)"><tspan
         sodipodi:role="line"
         id="tspan4447"
         x="-2675.2329"
         y="-1908.3893"
         style="font-size:50px">Antwort</tspan></text>
    <text
       sodipodi:linespacing="125%"
       id="text4449"
       y="2123.2522"
       x="-2544.45"
       style="font-style:normal;font-weight:normal;font-size:25px;line-height:125%;font-family:Sans;letter-spacing:0px;word-spacing:0px;fill:#000000;fill-opacity:1;stroke:none;stroke-width:1px;stroke-linecap:butt;stroke-linejoin:miter;stroke-opacity:1"
       xml:space="preserve"><tspan
         style="font-size:60px"
         y="2123.2522"
         x="-2544.45"
         id="tspan4451"
         sodipodi:role="line">Betriebsumgebung</tspan></text>
    <g
       id="g4538"
       transform="translate(-2870.5932,3129.9111)">
      <rect
         ry="38.514751"
         y="-261.29443"
         x="669.15576"
         height="200"
         width="742.24921"
         id="rect4540"
         style="color:#000000;display:inline;overflow:visible;visibility:visible;opacity:1;fill:#f1c3c3;fill-opacity:1;fill-rule:evenodd;stroke:#000000;stroke-width:7.38288879;stroke-linecap:round;stroke-linejoin:round;stroke-miterlimit:4;stroke-dasharray:none;stroke-dashoffset:0;stroke-opacity:1;marker:none;enable-background:accumulate" />
      <text
         sodipodi:linespacing="125%"
         id="text4542"
         y="-126.88992"
         x="805.84753"
         style="font-style:normal;font-weight:normal;font-size:92.28610992px;line-height:125%;font-family:Sans;letter-spacing:0px;word-spacing:0px;fill:#000000;fill-opacity:1;stroke:none;stroke-width:1px;stroke-linecap:butt;stroke-linejoin:miter;stroke-opacity:1"
         xml:space="preserve"><tspan
           style="font-style:normal;font-variant:normal;font-weight:normal;font-stretch:normal;font-family:'DejaVu Sans';-inkscape-font-specification:'DejaVu Sans'"
           y="-126.88992"
           x="805.84753"
           id="tspan4544"
           sodipodi:role="line" /></text>
    </g>
    <g
       id="g4555"
       transform="matrix(0.72323025,0,0,0.70833991,-3352.6808,3285.2006)">
      <path
         id="path4557"
         style="fill:#000000"
         d="m 1233.2592,-205.53862 0,-937.99368 -29.3281,0 21.575,-49.8917 21.5746,-49.8917 21.5747,49.8917 21.575,49.8917 -27.4743,0 0,937.99368 -29.4973,0 z"
         inkscape:export-ydpi="90"
         inkscape:export-filename="C:\Users\Joshua\Documents\Visual Studio 2010\Projects\Three on Three Round Robin Scheduler\arrowdown.png"
         inkscape:connector-curvature="0"
         inkscape:export-xdpi="90"
         sodipodi:nodetypes="ccccccccccc" />
      <g
         transform="matrix(3.6914445,0,0,3.6914445,-8004.866,40.350012)"
         id="g4559" />
    </g>
    <text
       transform="matrix(0,-1,1,0,0,0)"
       sodipodi:linespacing="125%"
       id="text4565"
       y="-2491.1023"
       x="-2675.2329"
       style="font-style:normal;font-weight:normal;font-size:42.55305862px;line-height:125%;font-family:Sans;letter-spacing:0px;word-spacing:0px;fill:#000000;fill-opacity:1;stroke:none;stroke-width:1px;stroke-linecap:butt;stroke-linejoin:miter;stroke-opacity:1"
       xml:space="preserve"><tspan
         y="-2491.1023"
         x="-2675.2329"
         id="tspan4567"
         sodipodi:role="line"
         style="font-size:50px">Antwort</tspan></text>
    <text
       xml:space="preserve"
       style="font-style:normal;font-weight:normal;font-size:73.06402588px;line-height:125%;font-family:Sans;letter-spacing:0px;word-spacing:0px;fill:#000000;fill-opacity:1;stroke:none;stroke-width:1px;stroke-linecap:butt;stroke-linejoin:miter;stroke-opacity:1"
       x="-1830.7766"
       y="2950.1899"
       id="text4569"
       sodipodi:linespacing="125%"><tspan
         sodipodi:role="line"
         id="tspan4571"
         x="-1830.7766"
         y="2950.1899"
         style="text-align:center;text-anchor:middle">Synthetische</tspan><tspan
         sodipodi:role="line"
         x="-1830.7766"
         y="3041.52"
         id="tspan4573"
         style="text-align:center;text-anchor:middle">Bibliothek</tspan></text>
    <circle
       cy="-1384.7677"
       cx="2518.7625"
       id="circle4468"
       style="color:#000000;display:inline;overflow:visible;visibility:visible;opacity:1;fill:#e6e6e6;fill-opacity:1;fill-rule:evenodd;stroke:#000000;stroke-width:2.513;stroke-linecap:round;stroke-linejoin:round;stroke-miterlimit:4;stroke-dasharray:20.104,20.104;stroke-dashoffset:0;stroke-opacity:1;marker:none;enable-background:accumulate"
       r="449"
       inkscape:export-xdpi="93.300003"
       inkscape:export-ydpi="93.300003" />
    <circle
       style="color:#000000;display:inline;overflow:visible;visibility:visible;opacity:1;fill:#f5d6d6;fill-opacity:1;fill-rule:evenodd;stroke:#000000;stroke-width:2.513;stroke-linecap:round;stroke-linejoin:round;stroke-miterlimit:4;stroke-dasharray:20.104,20.104;stroke-dashoffset:0;stroke-opacity:1;marker:none;enable-background:accumulate"
       id="circle4466"
       cx="2518.7625"
       cy="-1384.7677"
       r="306.43527"
       inkscape:export-xdpi="93.300003"
       inkscape:export-ydpi="93.300003" />
    <circle
       cy="-1384.7677"
       cx="2518.7625"
       id="circle4464"
       style="color:#000000;display:inline;overflow:visible;visibility:visible;opacity:1;fill:#f1c3c3;fill-opacity:1;fill-rule:evenodd;stroke:#000000;stroke-width:2.513;stroke-linecap:round;stroke-linejoin:round;stroke-miterlimit:4;stroke-dasharray:20.104,20.104;stroke-dashoffset:0;stroke-opacity:1;marker:none;enable-background:accumulate"
       r="250.39246"
       inkscape:export-xdpi="93.300003"
       inkscape:export-ydpi="93.300003" />
    <circle
       style="color:#000000;display:inline;overflow:visible;visibility:visible;opacity:1;fill:#ff5555;fill-opacity:1;fill-rule:evenodd;stroke:#000000;stroke-width:2.513;stroke-linecap:round;stroke-linejoin:round;stroke-miterlimit:4;stroke-dasharray:20.104,20.104;stroke-dashoffset:0;stroke-opacity:1;marker:none;enable-background:accumulate"
       id="path4462"
       cx="2518.7625"
       cy="-1384.7677"
       r="187.76558"
       inkscape:export-xdpi="93.300003"
       inkscape:export-ydpi="93.300003" />
    <text
       xml:space="preserve"
       style="font-style:normal;font-weight:normal;font-size:149.66665649px;line-height:125%;font-family:Sans;letter-spacing:0px;word-spacing:0px;fill:#000000;fill-opacity:1;stroke:none;stroke-width:1px;stroke-linecap:butt;stroke-linejoin:miter;stroke-opacity:1"
       x="2517.9438"
       y="-1480.1775"
       id="text4517"
       sodipodi:linespacing="125%"
       inkscape:export-xdpi="93.300003"
       inkscape:export-ydpi="93.300003"><tspan
         sodipodi:role="line"
         id="tspan4519"
         x="2517.9438"
         y="-1480.1775"
         style="font-size:52.3833313px;text-align:center;text-anchor:middle">Ring 0</tspan></text>
    <text
       xml:space="preserve"
       style="font-style:normal;font-weight:normal;font-size:149.66665649px;line-height:125%;font-family:Sans;letter-spacing:0px;word-spacing:0px;fill:#000000;fill-opacity:1;stroke:none;stroke-width:1px;stroke-linecap:butt;stroke-linejoin:miter;stroke-opacity:1"
       x="2436.2739"
       y="-1273.8723"
       id="text4521"
       sodipodi:linespacing="125%"
       inkscape:export-xdpi="93.300003"
       inkscape:export-ydpi="93.300003"><tspan
         sodipodi:role="line"
         id="tspan4523"
         x="2436.2739"
         y="-1273.8723"
         style="font-size:52.3833313px">Kernel</tspan></text>
    <text
       xml:space="preserve"
       style="font-style:normal;font-weight:normal;font-size:149.66665649px;line-height:125%;font-family:Sans;letter-spacing:0px;word-spacing:0px;fill:#000000;fill-opacity:1;stroke:none;stroke-width:1px;stroke-linecap:butt;stroke-linejoin:miter;stroke-opacity:1"
       x="2518.6418"
       y="-1585.3082"
       id="text4525"
       sodipodi:linespacing="125%"
       inkscape:export-xdpi="93.300003"
       inkscape:export-ydpi="93.300003"><tspan
         sodipodi:role="line"
         id="tspan4527"
         x="2518.6418"
         y="-1585.3082"
         style="font-size:44.89999771px;text-align:center;text-anchor:middle">Ring 1</tspan></text>
    <text
       xml:space="preserve"
       style="font-style:normal;font-weight:normal;font-size:149.66665649px;line-height:125%;font-family:Sans;letter-spacing:0px;word-spacing:0px;fill:#000000;fill-opacity:1;stroke:none;stroke-width:1px;stroke-linecap:butt;stroke-linejoin:miter;stroke-opacity:1"
       x="2518.8174"
       y="-1646.9231"
       id="text4529"
       sodipodi:linespacing="125%"
       inkscape:export-xdpi="93.300003"
       inkscape:export-ydpi="93.300003"><tspan
         sodipodi:role="line"
         id="tspan4531"
         x="2518.8174"
         y="-1646.9231"
         style="font-size:44.89999771px;text-align:center;text-anchor:middle">Ring 2</tspan></text>
    <text
       xml:space="preserve"
       style="font-style:normal;font-weight:normal;font-size:149.66665649px;line-height:125%;font-family:Sans;letter-spacing:0px;word-spacing:0px;fill:#000000;fill-opacity:1;stroke:none;stroke-width:1px;stroke-linecap:butt;stroke-linejoin:miter;stroke-opacity:1"
       x="2518.302"
       y="-1738.6371"
       id="text4533"
       sodipodi:linespacing="125%"
       inkscape:export-xdpi="93.300003"
       inkscape:export-ydpi="93.300003"><tspan
         sodipodi:role="line"
         id="tspan4535"
         x="2518.302"
         y="-1738.6371"
         style="font-size:52.3833313px;text-align:center;text-anchor:middle">Ring 3</tspan></text>
    <text
       sodipodi:linespacing="125%"
       id="text4561"
       y="-982.91211"
       x="2518.302"
       style="font-style:normal;font-weight:normal;font-size:149.66665649px;line-height:125%;font-family:Sans;letter-spacing:0px;word-spacing:0px;fill:#000000;fill-opacity:1;stroke:none;stroke-width:1px;stroke-linecap:butt;stroke-linejoin:miter;stroke-opacity:1"
       xml:space="preserve"
       inkscape:export-xdpi="93.300003"
       inkscape:export-ydpi="93.300003"><tspan
         style="font-size:52.3833313px;text-align:center;text-anchor:middle"
         y="-982.91211"
         x="2518.302"
         id="tspan4563"
         sodipodi:role="line">Benutzer</tspan></text>
    <path
       style="color:#000000;display:inline;overflow:visible;visibility:visible;opacity:1;fill:url(#linearGradient4574);fill-opacity:1;fill-rule:evenodd;stroke:#000000;stroke-width:2.113;stroke-linecap:round;stroke-linejoin:round;stroke-miterlimit:4;stroke-dasharray:none;stroke-dashoffset:0;stroke-opacity:1;marker:none;enable-background:accumulate"
       d="m 2456.8905,-1264.398 123.7436,0 -61.8718,247.4875 z"
       id="rect4565"
       inkscape:connector-curvature="0"
       sodipodi:nodetypes="cccc"
       inkscape:export-xdpi="93.300003"
       inkscape:export-ydpi="93.300003" />
    <text
       xml:space="preserve"
       style="font-style:normal;font-weight:normal;font-size:31.40060616px;line-height:125%;font-family:Sans;letter-spacing:0px;word-spacing:0px;fill:#000000;fill-opacity:1;stroke:none;stroke-width:1px;stroke-linecap:butt;stroke-linejoin:miter;stroke-opacity:1"
       x="1089.6108"
       y="2528.4485"
       id="text4576"
       sodipodi:linespacing="125%"
       transform="matrix(0,-1,1,0,0,0)"
       inkscape:export-xdpi="93.300003"
       inkscape:export-ydpi="93.300003"><tspan
         sodipodi:role="line"
         id="tspan4578"
         x="1089.6108"
         y="2528.4485">Privilegien</tspan></text>
    <g
       id="g4483"
       transform="matrix(0.95052087,0,0,0.95052087,109.64595,-43.843117)"
       inkscape:export-xdpi="93.300003"
       inkscape:export-ydpi="93.300003">
      <path
         style="font-style:normal;font-weight:normal;font-size:117.69333649px;line-height:125%;font-family:Sans;letter-spacing:0px;word-spacing:0px;fill:#f5d6d6;fill-opacity:1;stroke:none;stroke-width:1px;stroke-linecap:butt;stroke-linejoin:miter;stroke-opacity:1"
         d="m 2642.9023,-1174.1055 c -5.5706,-0.3223 -7.8084,6.7977 -5.6093,10.8067 -0.7976,1.5484 0.8646,6.6653 -1.1856,3.0293 -4.2857,-6.4242 -13.8251,-6.3791 -19.5859,-2.8164 -2.0118,-3.8288 -8.3242,-2.0409 -10.5254,-1.7969 2.2339,-5.2802 -4.2097,-9.4367 -8.9766,-7.5508 -8.1341,0 -16.2682,0 -24.4023,0 0.4593,3.4818 -2.5948,9.44 2.4492,10.9512 2.6602,0.8961 5.5926,-0.1756 8.2109,0.6562 0,8.6589 0,17.3177 0,25.9766 4.3366,1.9217 11.2984,1.3736 12.125,-4.3555 0.032,5.4396 7.4519,6.2467 10.7618,3.4375 4.0846,-5.2415 -1.7064,-13.059 2.414,-18.0371 3.5025,-1.9026 1.1465,2.5286 1.5606,4.3203 -0.2958,9.0264 7.9707,17.0689 17.084,15.5918 3.502,-0.1571 7.3797,-0.7272 9.9785,-3.3105 -0.394,3.9885 6.6252,4.2054 9.4121,2.1035 1.5599,-1.1773 2.2725,-4.4653 1.8711,-0.3047 3.0637,2.6792 9.2593,-0.575 13.457,1.5566 5.4653,0.8616 10.7277,-2.8088 13.002,-7.6132 4.6643,8.5347 17.6941,10.0257 25.082,4.5175 0.8536,1.0609 3.5258,3.5013 5.9844,2.5586 4.8745,0.9801 6.9167,-4.7295 5.8886,-8.6347 0.08,-3.462 -2.1474,-9.3061 1.8516,-11.0528 3.3978,-0.7207 5.1563,3.0966 7.3711,4.875 -1.7681,-4.9381 3.2216,-12.9391 -2.7207,-16.0195 -4.1021,-1.1952 -7.9667,1.4355 -11.8184,-0.207 -3.9364,-1.0407 -6.8746,3.3771 -6.83,6.1914 -5.2141,-9.2269 -20.4676,-8.0024 -24.6797,1.539 -2.4632,-5.683 -9.4246,-9.0997 -15.0684,-7.5761 1.0034,-3.1901 0.6743,-9.5977 -4.2051,-8.295 -2.4227,-0.2901 -6.026,-0.9601 -7.2539,1.7442 -1.28,-1.7337 -3.5744,-2.367 -5.6426,-2.2852 z m 5.5821,11.8516 c -0.8426,-0.6962 0.5944,-2.2271 0,0 z m -52.75,1.5195 c -0.9155,5.3931 0.6816,10.8375 -0.1485,16.2227 0.475,-5.3813 -1.2499,-10.996 0.01,-16.2676 l 0.1387,0.045 z m 66.9082,6.4004 c 3.6374,1.2565 3.1555,10.0996 -1.0664,9.0606 -1.9912,-1.6765 -2.4787,-8.9426 1.0664,-9.0606 z"
         id="text4477"
         inkscape:connector-curvature="0" />
      <text
         sodipodi:linespacing="125%"
         id="text4473"
         y="-1138.4048"
         x="2646.9736"
         style="font-style:normal;font-weight:normal;font-size:117.69333649px;line-height:125%;font-family:Sans;letter-spacing:0px;word-spacing:0px;fill:#000000;fill-opacity:1;stroke:none;stroke-width:1px;stroke-linecap:butt;stroke-linejoin:miter;stroke-opacity:1"
         xml:space="preserve"
         inkscape:export-xdpi="93.300003"
         inkscape:export-ydpi="93.300003"><tspan
           style="font-size:41.19266891px;text-align:center;text-anchor:middle"
           y="-1138.4048"
           x="2646.9736"
           id="tspan4475"
           sodipodi:role="line">Treiber</tspan></text>
    </g>
  </g>
</svg>
