0   , 11
0   , 9
0   , 14
0   , 4
0   , 22
0   , 5
0   , 21
2   , 13
2   , 122
2   , 17
2   , 14
2   , 27
2   , 4
2   , 22
2   , 21
2   , 40
2   , 24
2   , 36
2   , 23
2   , 19
2   , 2
2   , 12
2   , 28
2   , 20
2   , 6
2   , 95
2   , 75
2   , 1
2   , 30
2   , 26
2   , 11
2   , 9
2   , 20
3   , 9
3   , 4
3   , 5
5   , 13
5   , 9
5   , 14
5   , 40
5   , 36
5   , 2
5   , 12
5   , 20
5   , 75
5   , 9
5   , 22
5   , 20
9   , 13
9   , 11
9   , 9
9   , 22
9   , 23
9   , 19
9   , 12
9   , 75
9   , 1
9   , 26
10  , 13
10  , 22
10  , 12
11  , 13
11  , 11
11  , 9
11  , 22
11  , 23
11  , 19
11  , 12
11  , 1
11  , 26
11  , 75
12  , 12
13  , 14
13  , 22
14  , 14
14  , 22
21  , 13
21  , 40
21  , 36
21  , 2
21  , 20
21  , 30
21  , 14
21  , 22
21  , 5
21  , 12
21  , 26
21  , 9
21  , 22
21  , 20
41  , 13
41  , 97
41  , 22
41  , 24
41  , 23
41  , 105
41  , 12
41  , 93
49  , 13
49  , 98
49  , 99
49  , 9
49  , 14
49  , 22
49  , 40
49  , 36
49  , 2
49  , 12
49  , 20
49  , 88
49  , 30
50  , 98
50  , 9
50  , 88
50  , 95
51  , 9
51  , 22
51  , 105
51  , 88
51  , 95
54  , 9
54  , 14
54  , 22
54  , 92
54  , 88
59  , 7
59  , 13
59  , 11
59  , 14
59  , 22
59  , 5
59  , 21
59  , 80
59  , 40
59  , 24
59  , 36
59  , 23
59  , 2
59  , 8
59  , 12
59  , 20
59  , 1
59  , 26
97  , 14
97  , 22
97  , 1
97  , 3
131 , 14
131 , 22
131 , 12
131 , 1
158 , 14
158 , 22
158 , 1
202 , 110
202 , 3
202 , 1
202 , 38
202 , 12
202 , 23
202 , 22
202 , 4
202 , 14
202 , 25
202 , 11
202 , 13
204 , 14
204 , 22
204 , 1
204 , 3
228 , 14
228 , 22
228 , 1
233 , 9
233 , 17
233 , 22
233 , 40
233 , 2
233 , 12
233 , 28
233 , 1
257 , 13
257 , 122
257 , 17
257 , 14
257 , 27
257 , 4
257 , 22
257 , 21
257 , 40
257 , 24
257 , 36
257 , 23
257 , 19
257 , 12
257 , 28
257 , 20
257 , 6
257 , 95
257 , 75
257 , 1
257 , 30
257 , 26
257 , 24
257 , 9
257 , 20
273 , 14
273 , 22
273 , 1
273 , 3
288 , 1
288 , 71
288 , 95
288 , 12
288 , 105
288 , 23
288 , 24
288 , 22
288 , 4
288 , 14
288 , 103
288 , 9
288 , 24
288 , 11
291 , 22
291 , 24
291 , 23
291 , 12
