0   , 4
2   , 3
3   , 7
5   , 3
9   , 23
10  , 8
11  , 2
12  , 3
13  , 120
14  , 9
21  , 1
41  , 4
49  , 3
50  , 1
51  , 2
54  , 9
59  , 1
97  , 1
131 , 2
158 , 1
202 , 3
204 , 1
228 , 8
233 , 2
257 , 2
273 , 1
288 , 3
291 , 1
